02-DMG-analysis
…
## Warning: Unknown or uninitialised column: 'start_gene'.

## Warning: Unknown or uninitialised column: 'end_gene'.

DMLs.in.DMGs_2kbslop.calcs %>% ungroup() %>% select(chr, start) %>% distinct()

## # A tibble: 1,399 x 2
##    chr          start
##    <chr>        <int>
##  1 Contig103503  7021
##  2 Contig103503  7028
##  3 Contig103503  7054
##  4 Contig103503  7067
##  5 Contig103503  7072
##  6 Contig1245    9214
##  7 Contig1245    9223
##  8 Contig1245    9229
##  9 Contig1245    9246
## 10 Contig1245    9269
## #  with 1,389 more rows
…
