06-Annotating DMLs and MACAU loci
…
## 
##        CDS       exon       gene    gene2kb       mRNA similarity    unknown 
##        185        190        219        255        219          9         25

# 
DML.features[[3]] %>% left_join(uniprot, by=c("contig.feat","start.feat", "end.feat")) 

## # A tibble: 219 x 24
##    contig.dml start.dml end.dml score.dml contig.feat source.feat feature
##    <chr>          <dbl>   <dbl>     <dbl> <chr>       <chr>       <fct>  
##  1 Contig100      3427    3429     -31.8 Contig1009 maker       gene   
##  2 Contig101      3024    3026      26.3 Contig1016 maker       gene   
##  3 Contig103      7053    7055     -36.2 Contig1035 maker       gene   
##  4 Contig105      1696    1698     -29.1 Contig1052 maker       gene   
##  5 Contig109      3377    3379      54.2 Contig1095 maker       gene   
##  6 Contig114       412     414     -25.1 Contig1144 maker       gene   
##  7 Contig118       327     329      37.1 Contig1181 maker       gene   
##  8 Contig1245      9228    9230     -55.3 Contig1245  maker       gene   
##  9 Contig1270      4726    4728      38.7 Contig1270  maker       gene   
## 10 Contig128      3369    3371     -27.6 Contig1280 maker       gene   
## #  with 209 more rows, and 17 more variables: start.feat <dbl>,
## #   end.feat <dbl>, unknown1 <chr>, strand <chr>, unknown2 <chr>,
## #   attribute <chr>, ID <chr>, Parent <chr>, Name <chr>, Alias <chr>,
## #   AED <chr>, eAED <chr>, Note <chr>, Ontology_term <chr>, Dbxref <chr>,
## #   UniprotID <chr>, unknown <dbl>
…
