09-DMG-analysis
…
## Warning: Unknown or uninitialised column: 'start_gene'.

## Warning: Unknown or uninitialised column: 'end_gene'.

DMLs.in.DMGs_2kbslop.calcs %>% ungroup() %>% select(chr, start) %>% distinct()

## # A tibble: 875 x 2
##    chr          start
##    <chr>        <int>
##  1 Contig103503  7028
##  2 Contig103503  7067
##  3 Contig103503  7072
##  4 Contig1245    9246
##  5 Contig1245    9269
##  6 Contig1245    9703
##  7 Contig1245    9719
##  8 Contig128973 13408
##  9 Contig128973 13461
## 10 Contig128973 13664
## #  with 865 more rows
…
